Introduction to covizr • covizr
…
We aim to provide simple visualization functions that allow users to answer questions regarding the Covid-19 pandemic as quickly as possible.

This document introduces you to to the basics of using covizr, and shows you how to apply the function.

To use the function, first install the package according to the steps in README, and import the the library with the following code:

library(covizr)

Data

To explore the usage of covizr, you do not need extra data. Run the following function as the beginning of the code:

df <- get_data()
df
#> # A tibble: 1,304 × 67
#>    iso_code continent location date       total_cases new_cases new_cases_smoot…
#>    <chr>    <chr>     <chr>    <date>           <dbl>     <dbl>            <dbl>
#>  1 AFG      Asia      Afghani… 2022-01-28      161057        53             220.
#>  2 AFG      Asia      Afghani… 2022-01-29      161290       233             249.
#>  3 AFG      Asia      Afghani… 2022-01-30      162111       821             352.
#>  4 AFG      Asia      Afghani… 2022-01-31      162926       815             433.
#>  5 AFG      Asia      Afghani… 2022-02-01      163555       629             472.
#>  6 AFG      Asia      Afghani… 2022-02-02      164190       635             500.
#>  7 ALB      Europe    Albania  2022-01-28      254126      1549            1421.
#>  8 ALB      Europe    Albania  2022-01-29      254126         0            1102 
#>  9 ALB      Europe    Albania  2022-01-30      255741      1615            1096.
#> 10 ALB      Europe    Albania  2022-01-31      258543      2802            1496.
#> # … with 1,294 more rows, and 60 more variables: total_deaths <dbl>,
#> #   new_deaths <dbl>, new_deaths_smoothed <dbl>, total_cases_per_million <dbl>,
#> #   new_cases_per_million <dbl>, new_cases_smoothed_per_million <dbl>,
#> #   total_deaths_per_million <dbl>, new_deaths_per_million <dbl>,
#> #   new_deaths_smoothed_per_million <dbl>, reproduction_rate <dbl>,
#> #   icu_patients <dbl>, icu_patients_per_million <dbl>, hosp_patients <dbl>,
#> #   hosp_patients_per_million <dbl>, weekly_icu_admissions <dbl>, …

By default the function returns the last 7 days of data around the world. There are a few options you can parse into the function for more specific data selection:

date_from: Start date of the data range with format of ‘YYYY-MM-DD’.

date_to: End date of the data range with format of ‘YYYY-MM-DD’.

location: Charactor vector of target country names.

For example, to retrieve the data between ‘2021-05-01’ to ‘2021-07-01’ of Canada and United Kingdom:

loc <- c('Canada', 'United Kingdom')
df <- get_data(date_from = "2021-05-01", date_to = "2021-07-01", location = loc)
df
#> # A tibble: 124 × 67
#>    iso_code continent location date       total_cases new_cases new_cases_smoot…
#>    <chr>    <chr>     <chr>    <date>           <dbl>     <dbl>            <dbl>
#>  1 CAN      North Am… Canada   2021-05-01     1227807      7429            7881.
#>  2 CAN      North Am… Canada   2021-05-02     1234733      6926            7891.
#>  3 CAN      North Am… Canada   2021-05-03     1243845      9112            7905.
#>  4 CAN      North Am… Canada   2021-05-04     1250657      6812            7842.
#>  5 CAN      North Am… Canada   2021-05-05     1258014      7357            7790.
#>  6 CAN      North Am… Canada   2021-05-06     1266137      8123            7747.
#>  7 CAN      North Am… Canada   2021-05-07     1274073      7936            7671.
#>  8 CAN      North Am… Canada   2021-05-08     1280731      6658            7561.
#>  9 CAN      North Am… Canada   2021-05-09     1287175      6444            7492.
#> 10 CAN      North Am… Canada   2021-05-10     1294712      7537            7267.
#> # … with 114 more rows, and 60 more variables: total_deaths <dbl>,
#> #   new_deaths <dbl>, new_deaths_smoothed <dbl>, total_cases_per_million <dbl>,
#> #   new_cases_per_million <dbl>, new_cases_smoothed_per_million <dbl>,
#> #   total_deaths_per_million <dbl>, new_deaths_per_million <dbl>,
#> #   new_deaths_smoothed_per_million <dbl>, reproduction_rate <dbl>,
#> #   icu_patients <dbl>, icu_patients_per_million <dbl>, hosp_patients <dbl>,
#> #   hosp_patients_per_million <dbl>, weekly_icu_admissions <dbl>, …
…
